{
  "port": 3000,
  "mongoose": {
    "uri": "mongodb://localhost/chat",
    "options": {
      "server": {
        "socketOptions": {
          "keepAlive": 1
        }
      }
    }
  },
  "session": {
    "secret": "keyboard cat",
    "key": "sid",
    "cookie": {
      "path": "/",
      "httpOnly": true,
      "maxAge": null
    }
  }
}